Apuntes y ejercicios de geoestadística para forestales - 2 Introducción a R
…
- Los nombres de las filas (si existen) deben ser únicos.

- Cada columna debe contener el mismo número de elementos.

Para crear un data frame podemos utilizar la función data.frame y proporcionar una lista de vectores con nombre:

grades <- data.frame(Name = c("Mark", "Lewis", "Brian", "Matthew"),
                     Course = c(2, 2, 1, 2),
                     Grade = c("A", "B", "A+", "C"))

Sin embargo, raramente crearemos un data frame manualmente. Normalmente, llamaremos a una instrucción para leer archivos de texto que contengan datos o llamaremos a objetos de datos disponibles en algunos paquetes. Por ejemplo, consideremos el siguiente marco de datos, disponible en el paquete tidyverse (puede que necesites instalar y cargar el paquete):

starwars

# A tibble: 87 × 14
   name     height  mass hair_color skin_color eye_color birth_year sex   gender
   <chr>     <int> <dbl> <chr>      <chr>      <chr>          <dbl> <chr> <chr> 
 1 Luke Sk…    172    77 blond      fair       blue            19   male  mascu…
 2 C-3PO       167    75 <NA>       gold       yellow         112   none  mascu…
 3 R2-D2        96    32 <NA>       white, bl… red             33   none  mascu…
 4 Darth V…    202   136 none       white      yellow          41.9 male  mascu…
 5 Leia Or…    150    49 brown      light      brown           19   fema… femin…
 6 Owen La…    178   120 brown, gr… light      blue            52   male  mascu…
 7 Beru Wh…    165    75 brown      light      blue            47   fema… femin…
 8 R5-D4        97    32 <NA>       white, red red             NA   none  mascu…
 9 Biggs D…    183    84 black      light      brown           24   male  mascu…
10 Obi-Wan…    182    77 auburn, w… fair       blue-gray       57   male  mascu…
# ℹ 77 more rows
# ℹ 5 more variables: homeworld <chr>, species <chr>, films <list>,
#   vehicles <list>, starships <list>
…
starwars[4,3]

# A tibble: 1 × 1
   mass
  <dbl>
1   136

Si nos dejamos una de las dimensiones, obtendremos un mensaje de error. Sin embargo, si dejamos un espacio vacío, R entenderá que queremos mantener todos los elementos de la fila o columna seleccionada:

starwars[, 3]   # Seleccionará todos los valores de la columna 3

# A tibble: 87 × 1
    mass
   <dbl>
 1    77
 2    75
 3    32
 4   136
 5    49
 6   120
 7    75
 8    32
 9    84
10    77
# ℹ 77 more rows

starwars[4, ]   # Seleccionará todas las columnas para la fila 4

# A tibble: 1 × 14
  name      height  mass hair_color skin_color eye_color birth_year sex   gender
  <chr>      <int> <dbl> <chr>      <chr>      <chr>          <dbl> <chr> <chr> 
1 Darth Va…    202   136 none       white      yellow          41.9 male  mascu…
# ℹ 5 more variables: homeworld <chr>, species <chr>, films <list>,
#   vehicles <list>, starships <list>

Como los data frame son una sucesión de vectores con nombre, podemos utilizar el nombre de la columna para extraer las columnas deseadas:

starwars[ , "gender"]

# A tibble: 87 × 1
   gender   
   <chr>    
 1 masculine
 2 masculine
 3 masculine
 4 masculine
 5 feminine 
 6 masculine
 7 feminine 
 8 masculine
 9 masculine
10 masculine
# ℹ 77 more rows

starwars[ , c("gender", "birth_year")]

# A tibble: 87 × 2
   gender    birth_year
   <chr>          <dbl>
 1 masculine       19  
 2 masculine      112  
 3 masculine       33  
 4 masculine       41.9
 5 feminine        19  
 6 masculine       52  
 7 feminine        47  
 8 masculine       NA  
 9 masculine       24  
10 masculine       57  
# ℹ 77 more rows
…
