Apuntes y ejercicios de geoestadística para forestales - 4 Regresión lineal en R
…
Lo interesante de la función predict() es que no hace falta aplicarla a la misma tabla de datos que hemos usado para ajustar el modelo, sino que si tenemos una serie de datos nueva (de otras estaciones, u otras fechas) también podemos calcular el valor predicho por el modelo. En este caso, para cualquier punto del que tengamos la altitud, podemos determinar la temperatura media. Abramos el otro fichero que teníamos disponible en el campus virtual, llamado meteo_nuevo.txt:

meteo2 <- read_delim("./data/meteo/meteo_nuevo.txt", "\t")

Rows: 100 Columns: 2
── Column specification ────────────────────────────────────────────────────────
Delimiter: "\t"
dbl (2): elevation, d_medit

ℹ Use `spec()` to retrieve the full column specification for this data.
ℹ Specify the column types or set `show_col_types = FALSE` to quiet this message.

meteo2

# A tibble: 100 × 2
   elevation d_medit
       <dbl>   <dbl>
 1      793.  204153
 2      864.  193620
 3      939.  209678
 4      706.  221949
 5      787.  210552
 6      934.  188943
 7      802.  222480
 8     1061.  203576
 9      836.  219916
10      735.  202829
# ℹ 90 more rows

Vemos que es una tabla que contiene valores de altitud y distancia al mediterráneo, pero no contiene de hecho valores de temperatura. En base al modelo que ajustamos antes, podemos generarlos con predict():

meteo2$temp <- predict(mod_lm, meteo2)
meteo2

# A tibble: 100 × 3
   elevation d_medit  temp
       <dbl>   <dbl> <dbl>
 1      793.  204153  17.4
 2      864.  193620  17.0
 3      939.  209678  16.6
 4      706.  221949  17.9
 5      787.  210552  17.4
 6      934.  188943  16.6
 7      802.  222480  17.3
 8     1061.  203576  15.9
 9      836.  219916  17.1
10      735.  202829  17.7
# ℹ 90 more rows
…
